TVVT do Brasil a partir de dados de EMC do INMET
…
Importação de dados

Code

info_emc <- readxl::read_xlsx(file_info_emc, skip = 2, col_names = TRUE, na = "") |> 
  janitor::clean_names() |> 
  dplyr::select(codigo:atitude) |> 
  dplyr::rename("altitude" = "atitude")
info_emc
#> # A tibble: 271 × 6
#>    codigo nome_da_estacao   uf    latitude longitude altitude
#>     <dbl> <chr>             <chr>    <dbl>     <dbl>    <dbl>
#>  1  82989 AGUA BRANCA       AL       -9.26     -37.9   603.  
#>  2  83249 ALAGOINHAS        BA      -12.1      -38.4   130.  
#>  3  82353 ALTAMIRA          PA       -3.21     -52.2   102.  
#>  4  83007 ALTO DA BOA VISTA RJ      -23.0      -43.3   347.  
#>  5  82970 ALTO PARNAIBA     MA       -9.11     -45.9   285.  
#>  6  83788 ANGRA DOS REIS    RJ      -23.0      -44.3    17.0 
#>  7  82590 APODI             RN       -5.63     -37.8   131.  
#>  8  83096 ARACAJU           SE      -11.0      -37.1     3.68
#>  9  83442 ARACUAI           MG      -16.8      -42.1   318.  
#> 10  83368 ARAGARCAS         GO      -15.9      -52.2   327.  
#> # ℹ 261 more rows
…
